{"timestamp": "2024-03-29T21:00:18", "level": "Info", "message": "User session expired", "host": "app-server-03.example.com"}
{"timestamp": "2024-03-29T21:05:32", "level": "Warn", "message": "Memory usage exceeding limit", "host": "db-server-02.example.com"}
{"timestamp": "2024-03-29T21:10:48", "level": "Info", "message": "Request processed successfully", "host": "webserver-prod-03.example.com"}
{"timestamp": "2024-03-29T21:15:03", "level": "ERROR", "message": "Server crashed", "host": "app-server-02.example.com"}
{"timestamp": "2024-03-29T21:20:20", "level": "Info", "message": "Page loaded successfully", "host": "api-gateway-01.example.com"}
{"timestamp": "2024-03-29T21:25:35", "level": "Warn", "message": "Disk space running low", "host": "db-server-01.example.com"}
{"timestamp": "2024-03-29T21:30:50", "level": "Info", "message": "Data saved successfully", "host": "webserver-dev-03.example.com"}
{"timestamp": "2024-03-29T21:35:05", "level": "ERROR", "message": "Internal server error", "host": "load-balancer-01.example.com"}
{"timestamp": "2024-03-29T21:40:18", "level": "Info", "message": "Page accessed", "host": "api-gateway-02.example.com"}
{"timestamp": "2024-03-29T21:45:32", "level": "Warn", "message": "Database connection lost", "host": "webserver-prod-01.example.com"}
{"timestamp": "2024-03-29T21:50:48", "level": "Info", "message": "File uploaded successfully", "host": "app-server-02.example.com"}
{"timestamp": "2024-03-29T21:55:03", "level": "ERROR", "message": "Database query failed", "host": "webserver-dev-01.example.com"}
{"timestamp": "2024-03-29T22:00:18", "level": "Info", "message": "User session expired", "host": "app-server-03.example.com"}
{"timestamp": "2024-03-29T22:05:32", "level": "Warn", "message": "Memory usage exceeding limit", "host": "db-server-02.example.com"}
{"timestamp": "2024-03-29T22:10:48", "level": "Info", "message": "Request processed successfully", "host": "webserver-prod-03.example.com"}
{"timestamp": "2024-03-29T22:15:03", "level": "ERROR", "message": "Server crashed", "host": "app-server-02.example.com"}
{"timestamp": "2024-03-29T22:20:20", "level": "Info", "message": "Page loaded successfully", "host": "api-gateway-01.example.com"}
{"timestamp": "2024-03-29T22:25:35", "level": "Warn", "message": "Disk space running low", "host": "db-server-01.example.com"}
{"timestamp": "2024-03-29T22:30:50", "level": "Info", "message": "Data saved successfully", "host": "webserver-dev-03.example.com"}
{"timestamp": "2024-03-29T22:35:05", "level": "ERROR", "message": "Internal server error", "host": "load-balancer-01.example.com"}
{"timestamp": "2024-03-29T22:40:18", "level": "Info", "message": "Page accessed", "host": "api-gateway-02.example.com"}
{"timestamp": "2024-03-29T22:45:32", "level": "Warn", "message": "Database connection lost", "host": "webserver-prod-01.example.com"}
{"timestamp": "2024-03-29T22:50:48", "level": "Info", "message": "File uploaded successfully", "host": "app-server-02.example.com"}
{"timestamp": "2024-03-29T22:55:03", "level": "ERROR", "message": "Database query failed", "host": "webserver-dev-01.example.com"}
